NBCUniversal - Box Office Forecasting
…
Do remakes (adaptions), tent-poles, and sequels perform differently?

Fitst step, find sequels. Sort the titles by alphabetical orders and youll find the sequels: 21/22 Jump Street, A Huanted House, Alvin and the Chipmunks, American Pie But its time-consuming. A clever way would be to group by director, since a series of movies are always filmed by the same director.

movies.before %>%
  group_by(title) %>%
  arrange(title) %>%
  top_n(10)

## # A tibble: 2,614 x 20
## # Groups:   title [2,595]
##    imdbid  title    rating imdb_rating metacritic dvd_release production  
##    <fct>   <fct>    <fct>        <dbl>      <dbl> <date>      <fct>       
##  1 tt1179~ 10 Clov~ PG-13         7.20        76. 2016-06-14  Bad Robot P~
##  2 tt3453~ 10 Days~ R             6.60       NaN  NA          N/A         
##  3 tt0443~ 10,000 ~ PG-13         5.10        34. 2008-06-24  Warner Bros~
##  4 tt0488~ 12       PG-13         7.80        72. 2009-07-14  Sony Pictur~
##  5 tt1160~ 12 Roun~ PG-13         5.60        38. 2009-06-30  20th Centur~
##  6 tt2024~ 12 Year~ R             8.10        96. 2014-03-04  Fox Searchl~
##  7 tt1542~ 127 Hou~ R             7.60        82. 2011-03-01  Fox Searchl~
##  8 tt0337~ 13 Goin~ PG-13         6.10        57. 2006-02-07  Sony Pictur~
##  9 tt4172~ 13 Hours R             7.30        48. 2016-06-07  Paramount P~
## 10 tt2059~ 13 Sins  R             6.30        44. 2014-06-16  Radius-TWC  
## # ... with 2,604 more rows, and 13 more variables: actors <fct>,
## #   imdb_votes <dbl>, director <fct>, release_date <date>, runtime <fct>,
## #   genre <fct>, awards <fct>, Budget <dbl>, Box.Office.Gross <dbl>,
## #   release.year <dbl>, release.month <dbl>, release.day <dbl>, roi <dbl>
…
